Project/Code/System/simulation/qsim/System.msim.vcd
$comment
	File created using the following command:
		vcd file System.msim.vcd -direction
$end
$date
	Mon Jun 10 00:59:41 2024
$end
$version
	ModelSim Version 10.1d
$end
$timescale
	1ps
$end
$scope module System_vlg_vec_tst $end
$var reg 1 ! clk $end
$var reg 1 " sensor_in $end
$var reg 1 # sensor_out $end
$var wire 1 $ count_debug [6] $end
$var wire 1 % count_debug [5] $end
$var wire 1 & count_debug [4] $end
$var wire 1 ' count_debug [3] $end
$var wire 1 ( count_debug [2] $end
$var wire 1 ) count_debug [1] $end
$var wire 1 * count_debug [0] $end
$var wire 1 + LCD_data [7] $end
$var wire 1 , LCD_data [6] $end
$var wire 1 - LCD_data [5] $end
$var wire 1 . LCD_data [4] $end
$var wire 1 / LCD_data [3] $end
$var wire 1 0 LCD_data [2] $end
$var wire 1 1 LCD_data [1] $end
$var wire 1 2 LCD_data [0] $end
$var wire 1 3 LCD_E $end
$var wire 1 4 LCD_RS $end
$var wire 1 5 LCD_RW $end
$var wire 1 6 Led_in $end
$var wire 1 7 Led_out $end
$var wire 1 8 out_servo_in $end
$var wire 1 9 out_servo_out $end
$var wire 1 : sampler $end
$scope module i1 $end
$var wire 1 ; gnd $end
$var wire 1 < vcc $end
$var wire 1 = unknown $end
$var tri1 1 > devclrn $end
$var tri1 1 ? devpor $end
$var tri1 1 @ devoe $end
$var wire 1 A B5|chuc[0]~4_cout $end
$var wire 1 B B5|chuc[0]~9_cout $end
$var wire 1 C B5|Div0|auto_generated|divider|divider|add_sub_5|add_sub_cella[2]~10 $end
$var wire 1 D B5|Div0|auto_generated|divider|divider|add_sub_4|add_sub_cella[2]~10 $end
$var wire 1 E B5|Div0|auto_generated|divider|divider|add_sub_4|add_sub_cella[2]~15 $end
$var wire 1 F B5|chuc[0]~14_cout $end
$var wire 1 G B5|Div0|auto_generated|divider|divider|add_sub_5|add_sub_cella[2]~20 $end
$var wire 1 H B5|chuc[0]~19_cout $end
$var wire 1 I B5|Div0|auto_generated|divider|divider|add_sub_3|add_sub_cella[2]~15 $end
$var wire 1 J clk~combout $end
$var wire 1 K B1|Add0~15_combout $end
$var wire 1 L B1|Add0~12 $end
$var wire 1 M B1|Add0~12COUT1_88 $end
$var wire 1 N B1|Add0~5_combout $end
$var wire 1 O B1|Add0~17 $end
$var wire 1 P B1|Add0~17COUT1_90 $end
$var wire 1 Q B1|Add0~0_combout $end
$var wire 1 R B1|Add0~2 $end
$var wire 1 S B1|Add0~2COUT1_92 $end
$var wire 1 T B1|Add0~30_combout $end
$var wire 1 U B1|Add0~25_combout $end
$var wire 1 V B1|Add0~32 $end
$var wire 1 W B1|Add0~32COUT1_94 $end
$var wire 1 X B1|Add0~20_combout $end
$var wire 1 Y B1|Add0~22 $end
$var wire 1 Z B1|Add0~22COUT1_96 $end
$var wire 1 [ B1|Add0~37 $end
$var wire 1 \ B1|Add0~27 $end
$var wire 1 ] B1|Add0~27COUT1_98 $end
$var wire 1 ^ B1|Add0~40_combout $end
$var wire 1 _ B1|Add0~42 $end
$var wire 1 ` B1|Add0~42COUT1_100 $end
$var wire 1 a B1|Add0~45_combout $end
$var wire 1 b B1|Add0~47 $end
$var wire 1 c B1|Add0~47COUT1_102 $end
$var wire 1 d B1|Add0~50_combout $end
$var wire 1 e B1|Add0~52 $end
$var wire 1 f B1|Add0~52COUT1_104 $end
$var wire 1 g B1|Add0~55_combout $end
$var wire 1 h B1|Add0~57 $end
$var wire 1 i B1|Add0~70_combout $end
$var wire 1 j B1|Equal0~2 $end
$var wire 1 k B1|Add0~72 $end
$var wire 1 l B1|Add0~72COUT1_106 $end
$var wire 1 m B1|Add0~60_combout $end
$var wire 1 n B1|Add0~62 $end
$var wire 1 o B1|Add0~62COUT1_108 $end
$var wire 1 p B1|Add0~65_combout $end
$var wire 1 q B1|Equal0~3 $end
$var wire 1 r B1|Equal0~0 $end
$var wire 1 s B1|Add0~10_combout $end
$var wire 1 t B1|Add0~7 $end
$var wire 1 u B1|Add0~35_combout $end
$var wire 1 v B1|Equal0~1 $end
$var wire 1 w B1|temp~regout $end
$var wire 1 x sensor_out~combout $end
$var wire 1 y B0|sig_out~regout $end
$var wire 1 z B0|st_out.delay_out~regout $end
$var wire 1 { B0|Add2~35_combout $end
$var wire 1 | B0|Add2~37 $end
$var wire 1 } B0|Add2~37COUT1_65 $end
$var wire 1 ~ B0|Add2~30_combout $end
$var wire 1 !! B0|Add2~32 $end
$var wire 1 "! B0|Add2~32COUT1_67 $end
$var wire 1 #! B0|Add2~15_combout $end
$var wire 1 $! B0|Add2~17 $end
$var wire 1 %! B0|Add2~17COUT1_69 $end
$var wire 1 &! B0|Add2~10_combout $end
$var wire 1 '! B0|Add2~12 $end
$var wire 1 (! B0|Add2~12COUT1_71 $end
$var wire 1 )! B0|Add2~0_combout $end
$var wire 1 *! B0|Add2~2 $end
$var wire 1 +! B0|Add2~5_combout $end
$var wire 1 ,! B0|Add2~7 $end
$var wire 1 -! B0|Add2~7COUT1_73 $end
$var wire 1 .! B0|Add2~20_combout $end
$var wire 1 /! B0|Add2~22 $end
$var wire 1 0! B0|Add2~22COUT1_75 $end
$var wire 1 1! B0|Add2~25_combout $end
$var wire 1 2! B0|Equal1~1_combout $end
$var wire 1 3! B0|Add2~27 $end
$var wire 1 4! B0|Add2~27COUT1_77 $end
$var wire 1 5! B0|Add2~40_combout $end
$var wire 1 6! B0|Add2~42 $end
$var wire 1 7! B0|Add2~42COUT1_79 $end
$var wire 1 8! B0|Add2~45_combout $end
$var wire 1 9! B0|Add2~47 $end
$var wire 1 :! B0|Add2~50_combout $end
$var wire 1 ;! B0|Equal1~2_combout $end
$var wire 1 <! B0|Equal1~0_combout $end
$var wire 1 =! B0|Equal1~3_combout $end
$var wire 1 >! B0|st_out.waiting_out~regout $end
$var wire 1 ?! B0|st_out.countdown~regout $end
$var wire 1 @! sensor_in~combout $end
$var wire 1 A! B0|sig_in~regout $end
$var wire 1 B! B0|st_in.waiting_in~regout $end
$var wire 1 C! B0|st_in.delay_in~regout $end
$var wire 1 D! B0|st_in~9_combout $end
$var wire 1 E! B0|Add0~0_combout $end
$var wire 1 F! B0|Add0~2 $end
$var wire 1 G! B0|Add0~2COUT1_65 $end
$var wire 1 H! B0|Add0~5_combout $end
$var wire 1 I! B0|Add0~7 $end
$var wire 1 J! B0|Add0~7COUT1_67 $end
$var wire 1 K! B0|Add0~10_combout $end
$var wire 1 L! B0|Add0~12 $end
$var wire 1 M! B0|Add0~12COUT1_69 $end
$var wire 1 N! B0|Add0~15_combout $end
$var wire 1 O! B0|Add0~17 $end
$var wire 1 P! B0|Add0~17COUT1_71 $end
$var wire 1 Q! B0|Add0~20_combout $end
$var wire 1 R! B0|Add0~22 $end
$var wire 1 S! B0|Add0~35_combout $end
$var wire 1 T! B0|Add0~37 $end
$var wire 1 U! B0|Add0~37COUT1_73 $end
$var wire 1 V! B0|Add0~25_combout $end
$var wire 1 W! B0|Add0~27 $end
$var wire 1 X! B0|Add0~27COUT1_75 $end
$var wire 1 Y! B0|Add0~30_combout $end
$var wire 1 Z! B0|Add0~32 $end
$var wire 1 [! B0|Add0~32COUT1_77 $end
$var wire 1 \! B0|Add0~40_combout $end
$var wire 1 ]! B0|Add0~42 $end
$var wire 1 ^! B0|Add0~42COUT1_79 $end
$var wire 1 _! B0|Add0~45_combout $end
$var wire 1 `! B0|Add0~47 $end
$var wire 1 a! B0|Add0~50_combout $end
$var wire 1 b! B0|Equal0~2_combout $end
$var wire 1 c! B0|Equal0~1_combout $end
$var wire 1 d! B0|Equal0~0_combout $end
$var wire 1 e! B0|Equal0~3_combout $end
$var wire 1 f! B0|st_in.countup~regout $end
$var wire 1 g! B0|count_car_temp[2]~14_combout $end
$var wire 1 h! B0|count_car_temp[0]~1 $end
$var wire 1 i! B0|count_car_temp[0]~1COUT1_22 $end
$var wire 1 j! B0|count_car_temp[1]~3 $end
$var wire 1 k! B0|count_car_temp[1]~3COUT1_24 $end
$var wire 1 l! B0|count_car_temp[2]~5 $end
$var wire 1 m! B0|count_car_temp[2]~5COUT1_26 $end
$var wire 1 n! B0|count_car_temp[3]~7 $end
$var wire 1 o! B0|count_car_temp[4]~9 $end
$var wire 1 p! B0|count_car_temp[4]~9COUT1_28 $end
$var wire 1 q! B0|count_car_temp[5]~11 $end
$var wire 1 r! B0|count_car_temp[5]~11COUT1_30 $end
$var wire 1 s! B4|led_in~regout $end
$var wire 1 t! B4|led_out~regout $end
$var wire 1 u! B3|Add0~0_combout $end
$var wire 1 v! B2|Add0~0 $end
$var wire 1 w! B2|Add0~3 $end
$var wire 1 x! B2|Equal0~0_combout $end
$var wire 1 y! B2|Add0~2_combout $end
$var wire 1 z! B2|Add0~1_combout $end
$var wire 1 {! B2|LessThan0~0_combout $end
$var wire 1 |! B2|PWM_Servo_In~regout $end
$var wire 1 }! B3|Add0~2 $end
$var wire 1 ~! B3|Add0~2COUT1_25 $end
$var wire 1 !" B3|Add0~7 $end
$var wire 1 "" B3|Add0~7COUT1_27 $end
$var wire 1 #" B3|Add0~12 $end
$var wire 1 $" B3|Add0~12COUT1_29 $end
$var wire 1 %" B3|Add0~15_combout $end
$var wire 1 &" B3|Add0~10_combout $end
$var wire 1 '" B3|LessThan0~0_combout $end
$var wire 1 (" B3|Add0~5_combout $end
$var wire 1 )" B3|PWM_Servo_Out~regout $end
$var wire 1 *" B6|st~2_combout $end
$var wire 1 +" B6|Equal7~0_combout $end
$var wire 1 ," B6|index[3]~0_combout $end
$var wire 1 -" B6|command[0]~0_combout $end
$var wire 1 ." B6|LessThan2~1_combout $end
$var wire 1 /" B6|command[3]~4_combout $end
$var wire 1 0" B6|Equal8~0_combout $end
$var wire 1 1" B6|st~1_combout $end
$var wire 1 2" B6|st~regout $end
$var wire 1 3" B6|st~0_combout $end
$var wire 1 4" B6|EN~regout $end
$var wire 1 5" B6|RS~regout $end
$var wire 1 6" B6|LessThan2~0_combout $end
$var wire 1 7" B6|Selector11~2_combout $end
$var wire 1 8" B6|Selector9~0_combout $end
$var wire 1 9" B6|Selector11~0 $end
$var wire 1 :" B5|Div0|auto_generated|divider|divider|add_sub_3|add_sub_cella[1]~COUT $end
$var wire 1 ;" B5|Div0|auto_generated|divider|divider|add_sub_3|add_sub_cella[1]~COUTCOUT1_29 $end
$var wire 1 <" B5|Div0|auto_generated|divider|divider|add_sub_3|add_sub_cella[2]~22_combout $end
$var wire 1 =" B5|Div0|auto_generated|divider|divider|add_sub_3|add_sub_cella[2]~17_cout0 $end
$var wire 1 >" B5|Div0|auto_generated|divider|divider|add_sub_3|add_sub_cella[2]~17COUT1_31 $end
$var wire 1 ?" B5|Div0|auto_generated|divider|divider|add_sub_3|add_sub_cella[2]~12 $end
$var wire 1 @" B5|Div0|auto_generated|divider|divider|add_sub_3|add_sub_cella[2]~12COUT1_33 $end
$var wire 1 A" B5|Div0|auto_generated|divider|divider|add_sub_3|add_sub_cella[2]~7 $end
$var wire 1 B" B5|Div0|auto_generated|divider|divider|add_sub_3|add_sub_cella[2]~7COUT1_35 $end
$var wire 1 C" B5|Div0|auto_generated|divider|divider|add_sub_3|add_sub_cella[2]~0 $end
$var wire 1 D" B5|Div0|auto_generated|divider|divider|StageOut[16]~4_combout $end
$var wire 1 E" B5|Div0|auto_generated|divider|divider|StageOut[16]~3_combout $end
$var wire 1 F" B5|Div0|auto_generated|divider|divider|add_sub_4|add_sub_cella[1]~COUT $end
$var wire 1 G" B5|Div0|auto_generated|divider|divider|add_sub_4|add_sub_cella[1]~COUTCOUT1_43 $end
$var wire 1 H" B5|Div0|auto_generated|divider|divider|add_sub_4|add_sub_cella[2]~27_combout $end
$var wire 1 I" B5|Div0|auto_generated|divider|divider|add_sub_4|add_sub_cella[2]~17_cout0 $end
$var wire 1 J" B5|Div0|auto_generated|divider|divider|add_sub_4|add_sub_cella[2]~17COUT1_35 $end
$var wire 1 K" B5|Div0|auto_generated|divider|divider|add_sub_4|add_sub_cella[2]~5_combout $end
$var wire 1 L" B5|Div0|auto_generated|divider|divider|add_sub_3|add_sub_cella[2]~5_combout $end
$var wire 1 M" B5|Div0|auto_generated|divider|divider|StageOut[18]~11_combout $end
$var wire 1 N" B5|Div0|auto_generated|divider|divider|StageOut[18]~10_combout $end
$var wire 1 O" B5|Div0|auto_generated|divider|divider|StageOut[17]~16_combout $end
$var wire 1 P" B5|Div0|auto_generated|divider|divider|add_sub_3|add_sub_cella[2]~10_combout $end
$var wire 1 Q" B5|Div0|auto_generated|divider|divider|StageOut[17]~17_combout $end
$var wire 1 R" B5|Div0|auto_generated|divider|divider|add_sub_4|add_sub_cella[2]~7 $end
$var wire 1 S" B5|Div0|auto_generated|divider|divider|add_sub_4|add_sub_cella[2]~7COUT1_37 $end
$var wire 1 T" B5|Div0|auto_generated|divider|divider|add_sub_4|add_sub_cella[2]~22 $end
$var wire 1 U" B5|Div0|auto_generated|divider|divider|add_sub_4|add_sub_cella[2]~22COUT1_39 $end
$var wire 1 V" B5|Div0|auto_generated|divider|divider|add_sub_4|add_sub_cella[2]~12_cout0 $end
$var wire 1 W" B5|Div0|auto_generated|divider|divider|add_sub_4|add_sub_cella[2]~12COUT1_41 $end
$var wire 1 X" B5|Div0|auto_generated|divider|divider|add_sub_4|add_sub_cella[2]~0 $end
$var wire 1 Y" B5|Div0|auto_generated|divider|divider|StageOut[22]~0_combout $end
$var wire 1 Z" B5|Div0|auto_generated|divider|divider|StageOut[23]~8_combout $end
$var wire 1 [" B5|Div0|auto_generated|divider|divider|add_sub_4|add_sub_cella[2]~20_combout $end
$var wire 1 \" B5|Div0|auto_generated|divider|divider|StageOut[23]~9_combout $end
$var wire 1 ]" B5|Div0|auto_generated|divider|divider|StageOut[22]~5_combout $end
$var wire 1 ^" B5|Div0|auto_generated|divider|divider|StageOut[21]~12_combout $end
$var wire 1 _" B5|Div0|auto_generated|divider|divider|StageOut[21]~13_combout $end
$var wire 1 `" B5|Div0|auto_generated|divider|divider|add_sub_5|add_sub_cella[1]~COUT $end
$var wire 1 a" B5|Div0|auto_generated|divider|divider|add_sub_5|add_sub_cella[1]~COUTCOUT1_43 $end
$var wire 1 b" B5|Div0|auto_generated|divider|divider|add_sub_5|add_sub_cella[2]~27_combout $end
$var wire 1 c" B5|Div0|auto_generated|divider|divider|add_sub_5|add_sub_cella[2]~22_cout0 $end
$var wire 1 d" B5|Div0|auto_generated|divider|divider|add_sub_5|add_sub_cella[2]~22COUT1_35 $end
$var wire 1 e" B5|Div0|auto_generated|divider|divider|add_sub_5|add_sub_cella[2]~17 $end
$var wire 1 f" B5|Div0|auto_generated|divider|divider|add_sub_5|add_sub_cella[2]~17COUT1_37 $end
$var wire 1 g" B5|Div0|auto_generated|divider|divider|add_sub_5|add_sub_cella[2]~7 $end
$var wire 1 h" B5|Div0|auto_generated|divider|divider|add_sub_5|add_sub_cella[2]~7COUT1_39 $end
$var wire 1 i" B5|Div0|auto_generated|divider|divider|add_sub_5|add_sub_cella[2]~12_cout0 $end
$var wire 1 j" B5|Div0|auto_generated|divider|divider|add_sub_5|add_sub_cella[2]~12COUT1_41 $end
$var wire 1 k" B5|Div0|auto_generated|divider|divider|add_sub_5|add_sub_cella[2]~0 $end
$var wire 1 l" B5|Div0|auto_generated|divider|divider|StageOut[28]~1_combout $end
$var wire 1 m" B5|Div0|auto_generated|divider|divider|add_sub_5|add_sub_cella[2]~5_combout $end
$var wire 1 n" B5|Div0|auto_generated|divider|divider|StageOut[28]~2_combout $end
$var wire 1 o" B5|Div0|auto_generated|divider|divider|add_sub_5|add_sub_cella[2]~15_combout $end
$var wire 1 p" B5|Div0|auto_generated|divider|divider|StageOut[27]~7_combout $end
$var wire 1 q" B5|Div0|auto_generated|divider|divider|StageOut[27]~6_combout $end
$var wire 1 r" B5|Div0|auto_generated|divider|divider|StageOut[26]~15_combout $end
$var wire 1 s" B5|Div0|auto_generated|divider|divider|StageOut[26]~14_combout $end
$var wire 1 t" B5|Div0|auto_generated|divider|divider|StageOut[25]~19_combout $end
$var wire 1 u" B5|Div0|auto_generated|divider|divider|StageOut[25]~18_combout $end
$var wire 1 v" B5|chuc[0]~19COUT0_39 $end
$var wire 1 w" B5|chuc[0]~19COUT1_40 $end
$var wire 1 x" B5|chuc[0]~14COUT0_42 $end
$var wire 1 y" B5|chuc[0]~14COUT1_43 $end
$var wire 1 z" B5|chuc[0]~9COUT0_45 $end
$var wire 1 {" B5|chuc[0]~9COUT1_46 $end
$var wire 1 |" B5|chuc[0]~4COUT0_48 $end
$var wire 1 }" B5|chuc[0]~4COUT1_49 $end
$var wire 1 ~" B6|Selector6~0_combout $end
$var wire 1 !# B6|Selector11~1 $end
$var wire 1 "# B6|Selector10~0_combout $end
$var wire 1 ## B6|Selector10~1 $end
$var wire 1 $# B6|Selector10~2 $end
$var wire 1 %# B6|Equal5~0_combout $end
$var wire 1 &# B6|Selector9~1_combout $end
$var wire 1 '# B5|donvi[1]~1 $end
$var wire 1 (# B5|donvi[1]~1COUT1_11 $end
$var wire 1 )# B6|Selector9~2 $end
$var wire 1 *# B6|Selector9~3 $end
$var wire 1 +# B5|Add0~0_combout $end
$var wire 1 ,# B5|donvi[2]~3 $end
$var wire 1 -# B5|donvi[2]~3COUT1_13 $end
$var wire 1 .# B6|Selector8~2 $end
$var wire 1 /# B6|Selector8~1 $end
$var wire 1 0# B6|Equal4~0_combout $end
$var wire 1 1# B6|Selector8~0_combout $end
$var wire 1 2# B6|Selector5~0_combout $end
$var wire 1 3# B6|Equal4~1_combout $end
$var wire 1 4# B6|Selector7~0_combout $end
$var wire 1 5# B6|Mux2~0_combout $end
$var wire 1 6# B6|Selector6~1_combout $end
$var wire 1 7# B6|Equal6~0_combout $end
$var wire 1 8# B5|Div0|auto_generated|divider|divider|add_sub_3|add_sub_cella [3] $end
$var wire 1 9# B5|Div0|auto_generated|divider|divider|add_sub_3|add_sub_cella [2] $end
$var wire 1 :# B5|Div0|auto_generated|divider|divider|add_sub_3|add_sub_cella [1] $end
$var wire 1 ;# B5|Div0|auto_generated|divider|divider|add_sub_3|add_sub_cella [0] $end
$var wire 1 <# B5|Div0|auto_generated|divider|divider|add_sub_4|add_sub_cella [4] $end
$var wire 1 =# B5|Div0|auto_generated|divider|divider|add_sub_4|add_sub_cella [3] $end
$var wire 1 ># B5|Div0|auto_generated|divider|divider|add_sub_4|add_sub_cella [2] $end
$var wire 1 ?# B5|Div0|auto_generated|divider|divider|add_sub_4|add_sub_cella [1] $end
$var wire 1 @# B5|Div0|auto_generated|divider|divider|add_sub_4|add_sub_cella [0] $end
$var wire 1 A# B5|Div0|auto_generated|divider|divider|add_sub_5|add_sub_cella [4] $end
$var wire 1 B# B5|Div0|auto_generated|divider|divider|add_sub_5|add_sub_cella [3] $end
$var wire 1 C# B5|Div0|auto_generated|divider|divider|add_sub_5|add_sub_cella [2] $end
$var wire 1 D# B5|Div0|auto_generated|divider|divider|add_sub_5|add_sub_cella [1] $end
$var wire 1 E# B5|Div0|auto_generated|divider|divider|add_sub_5|add_sub_cella [0] $end
$var wire 1 F# B5|chuc [3] $end
$var wire 1 G# B5|chuc [2] $end
$var wire 1 H# B5|chuc [1] $end
$var wire 1 I# B5|chuc [0] $end
$var wire 1 J# B0|counter1 [10] $end
$var wire 1 K# B0|counter1 [9] $end
$var wire 1 L# B0|counter1 [8] $end
$var wire 1 M# B0|counter1 [7] $end
$var wire 1 N# B0|counter1 [6] $end
$var wire 1 O# B0|counter1 [5] $end
$var wire 1 P# B0|counter1 [4] $end
$var wire 1 Q# B0|counter1 [3] $end
$var wire 1 R# B0|counter1 [2] $end
$var wire 1 S# B0|counter1 [1] $end
$var wire 1 T# B0|counter1 [0] $end
$var wire 1 U# B0|count_car_temp [6] $end
$var wire 1 V# B0|count_car_temp [5] $end
$var wire 1 W# B0|count_car_temp [4] $end
$var wire 1 X# B0|count_car_temp [3] $end
$var wire 1 Y# B0|count_car_temp [2] $end
$var wire 1 Z# B0|count_car_temp [1] $end
$var wire 1 [# B0|count_car_temp [0] $end
$var wire 1 \# B6|index [3] $end
$var wire 1 ]# B6|index [2] $end
$var wire 1 ^# B6|index [1] $end
$var wire 1 _# B6|index [0] $end
$var wire 1 `# B2|counter [4] $end
$var wire 1 a# B2|counter [3] $end
$var wire 1 b# B2|counter [2] $end
$var wire 1 c# B2|counter [1] $end
$var wire 1 d# B2|counter [0] $end
$var wire 1 e# B0|counter2 [10] $end
$var wire 1 f# B0|counter2 [9] $end
$var wire 1 g# B0|counter2 [8] $end
$var wire 1 h# B0|counter2 [7] $end
$var wire 1 i# B0|counter2 [6] $end
$var wire 1 j# B0|counter2 [5] $end
$var wire 1 k# B0|counter2 [4] $end
$var wire 1 l# B0|counter2 [3] $end
$var wire 1 m# B0|counter2 [2] $end
$var wire 1 n# B0|counter2 [1] $end
$var wire 1 o# B0|counter2 [0] $end
$var wire 1 p# B5|donvi_ascii [7] $end
$var wire 1 q# B5|donvi_ascii [6] $end
$var wire 1 r# B5|donvi_ascii [5] $end
$var wire 1 s# B5|donvi_ascii [4] $end
$var wire 1 t# B5|donvi_ascii [3] $end
$var wire 1 u# B5|donvi_ascii [2] $end
$var wire 1 v# B5|donvi_ascii [1] $end
$var wire 1 w# B5|donvi_ascii [0] $end
$var wire 1 x# B1|counter [14] $end
$var wire 1 y# B1|counter [13] $end
$var wire 1 z# B1|counter [12] $end
$var wire 1 {# B1|counter [11] $end
$var wire 1 |# B1|counter [10] $end
$var wire 1 }# B1|counter [9] $end
$var wire 1 ~# B1|counter [8] $end
$var wire 1 !$ B1|counter [7] $end
$var wire 1 "$ B1|counter [6] $end
$var wire 1 #$ B1|counter [5] $end
$var wire 1 $$ B1|counter [4] $end
$var wire 1 %$ B1|counter [3] $end
$var wire 1 &$ B1|counter [2] $end
$var wire 1 '$ B1|counter [1] $end
$var wire 1 ($ B1|counter [0] $end
$var wire 1 )$ B6|command [3] $end
$var wire 1 *$ B6|command [2] $end
$var wire 1 +$ B6|command [1] $end
$var wire 1 ,$ B6|command [0] $end
$var wire 1 -$ B5|chuc_ascii [7] $end
$var wire 1 .$ B5|chuc_ascii [6] $end
$var wire 1 /$ B5|chuc_ascii [5] $end
$var wire 1 0$ B5|chuc_ascii [4] $end
$var wire 1 1$ B5|chuc_ascii [3] $end
$var wire 1 2$ B5|chuc_ascii [2] $end
$var wire 1 3$ B5|chuc_ascii [1] $end
$var wire 1 4$ B5|chuc_ascii [0] $end
$var wire 1 5$ B6|count [2] $end
$var wire 1 6$ B6|count [1] $end
$var wire 1 7$ B6|count [0] $end
$var wire 1 8$ B6|data_out [7] $end
$var wire 1 9$ B6|data_out [6] $end
$var wire 1 :$ B6|data_out [5] $end
$var wire 1 ;$ B6|data_out [4] $end
$var wire 1 <$ B6|data_out [3] $end
$var wire 1 =$ B6|data_out [2] $end
$var wire 1 >$ B6|data_out [1] $end
$var wire 1 ?$ B6|data_out [0] $end
$var wire 1 @$ B5|donvi [3] $end
$var wire 1 A$ B5|donvi [2] $end
$var wire 1 B$ B5|donvi [1] $end
$var wire 1 C$ B5|donvi [0] $end
$upscope $end
$upscope $end
$enddefinitions $end
#0
$dumpvars
0!
0"
1#
0*
0)
0(
0'
0&
0%
0$
02
01
00
0/
0.
0-
0,
0+
13
04
05
06
07
08
09
x:
0;
1<
x=
1>
1?
1@
1A
0B
1C
1D
1E
1F
1G
0H
1I
0J
0K
0L
0M
0N
0O
0P
0Q
1R
1S
0T
0U
0V
0W
0X
1Y
1Z
0[
1\
1]
0^
0_
0`
0a
1b
1c
0d
0e
0f
0g
1h
0i
0j
0k
0l
0m
1n
1o
0p
0q
0r
1s
1t
0u
0v
0w
1x
0y
0z
1{
0|
0}
0~
1!!
1"!
0#!
0$!
0%!
0&!
1'!
1(!
0)!
0*!
0+!
1,!
1-!
0.!
0/!
00!
01!
02!
13!
14!
05!
06!
07!
08!
19!
0:!
0;!
0<!
0=!
0>!
0?!
0@!
0A!
0B!
0C!
0D!
1E!
0F!
0G!
0H!
1I!
1J!
0K!
0L!
0M!
0N!
1O!
1P!
0Q!
0R!
0S!
1T!
1U!
0V!
0W!
0X!
0Y!
1Z!
1[!
0\!
0]!
0^!
0_!
1`!
0a!
0b!
0c!
1d!
0e!
0f!
0g!
0h!
0i!
1j!
1k!
0l!
0m!
1n!
0o!
0p!
1q!
1r!
0s!
0t!
0u!
0v!
0w!
0x!
0y!
0z!
0{!
0|!
0}!
0~!
1!"
1""
0#"
0$"
0%"
0&"
0'"
0("
0)"
0*"
0+"
0,"
0-"
0."
0/"
00"
01"
02"
13"
04"
05"
06"
07"
08"
19"
0:"
0;"
0<"
0="
0>"
1?"
1@"
0A"
0B"
0C"
0D"
0E"
0F"
0G"
0H"
0I"
0J"
1K"
0L"
0M"
0N"
0O"
1P"
0Q"
1R"
1S"
0T"
0U"
1V"
1W"
0X"
0Y"
0Z"
0["
0\"
0]"
0^"
0_"
0`"
0a"
0b"
0c"
0d"
1e"
1f"
0g"
0h"
1i"
1j"
0k"
0l"
0m"
0n"
1o"
0p"
0q"
0r"
0s"
0t"
0u"
0v"
0w"
1x"
1y"
0z"
0{"
1|"
1}"
0~"
0!#
0"#
0##
1$#
0%#
0&#
1'#
1(#
0)#
0*#
0+#
0,#
0-#
0.#
0/#
00#
01#
12#
03#
04#
05#
06#
07#
z;#
0:#
z9#
z8#
z@#
0?#
z>#
z=#
z<#
zE#
0D#
zC#
zB#
zA#
0I#
0H#
0G#
0F#
0T#
0S#
0R#
0Q#
0P#
0O#
0N#
0M#
0L#
0K#
0J#
0[#
0Z#
0Y#
0X#
0W#
0V#
0U#
0_#
0^#
0]#
0\#
0d#
0c#
0b#
0a#
0`#
0o#
0n#
0m#
0l#
0k#
0j#
0i#
0h#
0g#
0f#
0e#
0w#
0v#
0u#
0t#
zs#
zr#
zq#
zp#
0($
0'$
0&$
0%$
0$$
0#$
0"$
0!$
0~#
0}#
0|#
0{#
0z#
0y#
0x#
0,$
0+$
0*$
0)$
04$
03$
02$
01$
z0$
z/$
z.$
z-$
07$
06$
05$
0?$
0>$
0=$
0<$
0;$
0:$
09$
08$
0C$
0B$
0A$
0@$
$end
#500
1!
1J
0:
1($
1M
1L
0s
1N
#1000
0!
0J
1:
#1500
1!
1J
0:
0($
1'$
0M
0L
1s
0t
0N
1t
1N
1K
0K
#2000
0!
0J
1:
#2500
1!
1J
0:
1($
1M
1L
0s
0t
0N
1K
#3000
0!
0J
1:
#3500
1!
1J
0:
0($
0'$
1&$
0M
0L
1s
1t
1N
1O
0K
0N
1K
#4000
0!
0J
1:
#4500
1!
1J
0:
1($
1M
1L
0s
1N
#5000
0!
0J
1:
#5500
1!
1J
0:
0($
1'$
0M
0L
1s
0t
0N
1t
1N
1Q
0K
0Q
1K
#6000
0!
0J
1:
#6500
1!
1J
0:
1($
1M
1L
0s
0t
0N
1Q
0K
#7000
0!
0J
1:
#7500
1!
1J
0:
0($
0'$
1%$
0&$
1r
0M
0L
1s
1t
1N
0R
0Q
0O
1K
0N
1R
1Q
0K
#8000
0!
0J
1:
#8500
1!
1J
0:
1($
0r
1M
1L
0s
1N
#9000
0!
0J
1:
#9500
1!
1J
0:
0($
1'$
0M
0L
1s
0t
0N
1t
1N
1K
0K
#10000
0!
0J
1:
#10500
1!
1J
0:
1($
1M
1L
0s
0t
0N
1K
#11000
0!
0J
1:
#11500
1!
1J
0:
0($
0'$
1&$
0M
0L
1s
1t
1N
1O
0K
0N
0R
1K
#12000
0!
0J
1:
#12500
1!
1J
0:
1($
1M
1L
0s
1N
#13000
0!
0J
1:
#13500
1!
1J
0:
0($
1'$
0M
0L
1s
0t
0N
1t
1N
1T
0Q
0K
0T
1Q
1K
#14000
0!
0J
1:
#14500
1!
1J
0:
1($
1M
1L
0s
0t
0N
1T
0Q
0K
#15000
0!
0J
1:
#15500
1!
1J
0:
0($
0'$
0%$
1$$
0&$
0M
0L
1s
1t
1N
1R
1Q
1V
0T
0O
1K
0N
0V
1T
0Q
0K
#16000
0!
0J
1:
#16500
1!
1J
0:
1($
1M
1L
0s
1N
#17000
0!
0J
1:
#17500
1!
1J
0:
0($
1'$
0M
0L
1s
0t
0N
1t
1N
1K
0K
#18000
0!
0J
1:
#18500
1!
1J
0:
1($
1M
1L
0s
0t
0N
1K
#19000
0!
0J
1:
#19500
1!
1J
0:
0($
0'$
1&$
0M
0L
1s
1t
1N
1O
0K
0N
1K
#20000
0!
0J
1:
#20500
1!
1J
0:
1($
1M
1L
0s
1N
#21000
0!
0J
1:
#21500
1!
1J
0:
0($
1'$
0M
0L
1s
0t
0N
1t
1N
1Q
0K
0Q
1K
#22000
0!
0J
1:
#22500
1!
1J
0:
1($
1M
1L
0s
0t
0N
1Q
0K
#23000
0!
0J
1:
#23500
1!
1J
0:
0($
0'$
1%$
0&$
1r
0M
0L
1s
1t
1N
0R
0Q
0O
1K
0N
1V
1R
1Q
0K
0V
#24000
0!
0J
1:
#24500
1!
1J
0:
1($
0r
1M
1L
0s
1N
#25000
0!
0J
1:
#25500
1!
1J
0:
0($
1'$
0M
0L
1s
0t
0N
1t
1N
1K
0K
#26000
0!
0J
1:
#26500
1!
1J
0:
1($
1M
1L
0s
0t
0N
1K
#27000
0!
0J
1:
#27500
1!
1J
0:
0($
0'$
1&$
0M
0L
1s
1t
1N
1O
0K
0N
0R
1K
1V
#28000
0!
0J
1:
#28500
1!
1J
0:
1($
1M
1L
0s
1N
#29000
0!
0J
1:
#29500
1!
1J
0:
0($
1'$
0M
0L
1s
0t
0N
1t
1N
1X
0T
0Q
0K
0X
1T
1Q
1K
#30000
0!
0J
1:
